<svg xmlns="http://www.w3.org/2000/svg" id="prefix__Page-1" width="129.079" height="25.7" viewBox="0 0 129.079 25.7">
    <defs>
        <style>
            .prefix__cls-1{fill:#10293b;fill-rule:evenodd}
        </style>
    </defs>
    <g id="prefix___4" data-name="4">
        <g id="prefix__full_color">
            <path id="prefix__Fill-1" d="M94.872 45.053a14.1 14.1 0 01-4.327-.681 10.657 10.657 0 01-3.663-1.972l1.326-2.058a12.924 12.924 0 003.209 1.832 9.431 9.431 0 003.385.61A5.591 5.591 0 0097.96 42a2.515 2.515 0 001.169-2.215 2 2 0 00-.314-1.134 2.652 2.652 0 00-.942-.82 7.723 7.723 0 00-1.605-.627q-.977-.279-2.269-.593-1.64-.419-2.826-.8a7.674 7.674 0 01-1.953-.911 3.171 3.171 0 01-1.12-1.257 4.2 4.2 0 01-.349-1.814 5.275 5.275 0 01.54-2.425 5.124 5.124 0 011.483-1.78 6.7 6.7 0 012.215-1.082 9.87 9.87 0 012.739-.366 10.918 10.918 0 013.838.663 9.439 9.439 0 013 1.745l-1.4 1.849a7.835 7.835 0 00-2.582-1.518 8.741 8.741 0 00-2.93-.506 5.356 5.356 0 00-2.844.715 2.479 2.479 0 00-1.16 2.286 2.173 2.173 0 00.228 1.047 1.976 1.976 0 00.749.733 5.921 5.921 0 001.344.558q.82.245 1.972.523 1.814.42 3.157.856a9.072 9.072 0 012.233 1.029 3.98 3.98 0 011.326 1.4 4.047 4.047 0 01.437 1.954 4.836 4.836 0 01-1.955 4.048 8.435 8.435 0 01-5.268 1.5" class="prefix__cls-1" transform="translate(-64.609 -19.361)"/>
            <path id="prefix__Fill-3" d="M165.144 27.2c-.187.094-.43.205-.733.333s-.646.257-1.03.385a9.023 9.023 0 01-1.255.315 7.98 7.98 0 01-1.414.122 4.647 4.647 0 01-2.9-.928 3.4 3.4 0 01-1.221-2.891v-12.3h-2.477V9.815h2.477v-6.1h3.071v6.1h4.083v2.418h-4.083v11.353a1.917 1.917 0 00.663 1.472 2.222 2.222 0 001.4.455 4.436 4.436 0 001.657-.3 7.034 7.034 0 001.03-.473z" class="prefix__cls-1" transform="translate(-114.608 -2.765)"/>
            <path id="prefix__Fill-5" d="M218.1 34.375a6.569 6.569 0 00-.646-2.39 6.427 6.427 0 00-1.36-1.868 6.242 6.242 0 00-6.508-1.2 5.929 5.929 0 00-1.9 1.222A6.155 6.155 0 00206.358 32a6.877 6.877 0 00-.611 2.373zm-6.246 10.677a9.267 9.267 0 01-3.768-.751 8.909 8.909 0 01-2.932-2.041 9.305 9.305 0 01-1.9-3.019 9.853 9.853 0 01-.681-3.646 9.726 9.726 0 01.681-3.629 9.218 9.218 0 011.919-3 9.112 9.112 0 012.948-2.042 9.283 9.283 0 013.768-.75 8.855 8.855 0 018.462 5.775 9.747 9.747 0 01.649 3.508c0 .256 0 .489-.017.7a3.869 3.869 0 01-.052.489h-15.113a7.062 7.062 0 00.628 2.477 6.374 6.374 0 001.361 1.919 6.29 6.29 0 001.9 1.256 5.676 5.676 0 002.251.454 5.99 5.99 0 001.64-.227 7.133 7.133 0 001.5-.61 5.205 5.205 0 001.238-.942 3.863 3.863 0 00.82-1.256l2.651.733a6.677 6.677 0 01-1.238 1.849 8.211 8.211 0 01-1.814 1.448 9.312 9.312 0 01-2.286.96 9.743 9.743 0 01-2.616.349z" class="prefix__cls-1" transform="translate(-150.641 -19.361)"/>
            <path id="prefix__Fill-7" d="M283.012 35.562a9.948 9.948 0 01.664-3.629 8.914 8.914 0 011.884-2.983 9.1 9.1 0 012.914-2.025 9.245 9.245 0 013.786-.75 8.835 8.835 0 014.694 1.2 7.825 7.825 0 012.984 3.227l-3 .942a5 5 0 00-1.954-2.006 5.543 5.543 0 00-2.791-.716 5.706 5.706 0 00-4.293 1.919 6.953 6.953 0 00-1.273 2.128 7.409 7.409 0 00-.471 2.687 7.329 7.329 0 00.489 2.686 7.133 7.133 0 001.308 2.181 5.97 5.97 0 001.919 1.448 5.41 5.41 0 002.356.523 5.675 5.675 0 001.587-.227 6.085 6.085 0 001.431-.61 5.456 5.456 0 001.134-.889 3.031 3.031 0 00.7-1.1l3 .907a6.477 6.477 0 01-1.169 1.849 7.329 7.329 0 01-1.762 1.431 9.655 9.655 0 01-4.851 1.291 9.092 9.092 0 01-6.7-2.826 9.3 9.3 0 01-1.9-3.019 9.841 9.841 0 01-.681-3.646" class="prefix__cls-1" transform="translate(-210.459 -19.361)"/>
            <path id="prefix__Fill-9" d="M378.987 25.7h-3.071V15.47a7.37 7.37 0 00-.977-4.222 3.28 3.28 0 00-2.861-1.384 4.8 4.8 0 00-1.814.368 6.73 6.73 0 00-1.692 1 7.191 7.191 0 00-1.4 1.507 6.7 6.7 0 00-.925 1.927V25.7h-3.067V0h3.071v11.336a8.039 8.039 0 012.931-3.118 7.664 7.664 0 014.047-1.118 5.725 5.725 0 012.722.6 4.764 4.764 0 011.779 1.6 7.07 7.07 0 01.96 2.435 14.828 14.828 0 01.3 3.03z" class="prefix__cls-1" transform="translate(-270.076)"/>
            <path id="prefix__Fill-12" d="M444.815 42.751a7.612 7.612 0 003.054-.61 5.033 5.033 0 002.146-1.623 1.938 1.938 0 00.663-1.361V36.47a12.652 12.652 0 00-4.641-.872 6.588 6.588 0 00-3.751.977 2.959 2.959 0 00-1.448 2.547 3.457 3.457 0 00.3 1.431 3.387 3.387 0 00.837 1.151 3.988 3.988 0 001.273.768 4.363 4.363 0 001.57.279m-.8 2.3a6.576 6.576 0 01-2.408-.436 5.979 5.979 0 01-1.937-1.2 5.656 5.656 0 01-1.29-1.8 5.339 5.339 0 01-.471-2.25 4.72 4.72 0 01.558-2.285 5.187 5.187 0 011.588-1.762 8.177 8.177 0 012.442-1.151 10.836 10.836 0 013.088-.419 15.246 15.246 0 012.687.244 12.416 12.416 0 012.407.663V33.19a4.39 4.39 0 00-4.815-4.78 10.189 10.189 0 00-5.792 2.129l-1.012-1.989a12.592 12.592 0 017.083-2.373 7.776 7.776 0 015.6 1.918 7.135 7.135 0 012.006 5.409v7.432q0 1.082.977 1.117v2.651c-.326.047-.593.081-.8.105a6.317 6.317 0 01-.663.034 1.956 1.956 0 01-1.448-.54 2.228 2.228 0 01-.653-1.303l-.065-1.3a7.876 7.876 0 01-3.088 2.495 9.475 9.475 0 01-3.995.855" class="prefix__cls-1" transform="translate(-325.645 -19.363)"/>
            <path id="prefix__Fill-15" d="M7.061.04L0 17.369h3.345l.014-.039-.014 8.358 5.083-10.67h-4.2L8.428 3.8l5.323 14.4 3.021 7.526h3.453L9.794.04" transform="translate(0 -.03)" style="fill:#ec1a3a;fill-rule:evenodd"/>
        </g>
    </g>
</svg>
